<svg xmlns="http://www.w3.org/2000/svg" width="42" height="41" viewBox="0 0 42 41">
    <g fill="none" fill-rule="evenodd">
        <path fill="#FFF" stroke="#1363AA" d="M41.36 20.483c0 10.762-9.037 19.485-20.18 19.485C10.033 39.968 1 31.245 1 20.483 1 9.723 10.034 1 21.18 1c11.143 0 20.18 8.723 20.18 19.483"/>
        <path fill="#FFF" d="M21.449 39.967h-.143.142zm-8.045-1.498c.574.247.959.382 1.05.415 1.349.468 2.799.792 4.408.958a20.653 20.653 0 0 1-5.458-1.373z"/>
        <path fill="#1363AA" stroke="#FFF" stroke-width="1.3" d="M34.883 19.091c-.147.413-.523.781-1.63.781-1.106 0-1.734-.01-2.656-.01-.014.26-.036.475-.037.692-.002 2.795 0 5.59-.002 8.385-.001.98-.395 1.382-1.406 1.383-5.327.005-10.655.005-15.983 0-1.012 0-1.401-.4-1.402-1.386v-9.074H9.655c-.302 0-.604-.002-.906 0-.534.003-.928-.213-1.127-.7-.207-.508-.064-.944.348-1.298 1.313-1.129 2.629-2.253 3.944-3.378l8.253-7.055c.727-.622 1.273-.619 2.008.013.273.234.731.666 1.374 1.296-.005-.38-.005-.601 0-.664.05-.638.383-1.06 1.046-1.089a45.764 45.764 0 0 1 3.723-.003c.718.03 1.059.46 1.064 1.168.01 1.63.013 3.258-.003 4.887-.004.356.1.603.38.842a371.872 371.872 0 0 1 4.358 3.78c.257.226.5.497.689.766.116.278.142.5.077.664zm-23.128-1.468h.788c1.146 0 1.494.335 1.494 1.438 0 2.795.015 5.588-.013 8.382-.002.182-.002.4 0 .654h.69c4.297-.02 8.593-.01 12.89-.01h.686c-.002-.231-.002-.46-.002-.689 0-2.845-.003-5.69.002-8.536 0-.822.424-1.228 1.273-1.239.29-.005.58 0 1.024 0-1.057-.923-1.977-1.746-2.923-2.54-.422-.356-.61-.765-.602-1.304.018-1.336.007-2.673.004-4.01v-.54h-1.22c0 .61.01 1.163.005 1.736-.005.574-.133.979-.68 1.166-.548.188-.961.065-1.364-.284-.74-.64-1.498-1.26-2.223-1.918-.1-.09-.238-.212-.413-.363a25.38 25.38 0 0 0-.417.35c-2.565 2.217-5.148 4.415-7.724 6.62-.38.324-.753.653-1.13.98l-.145.107z"/>
        <path fill="#1363AA" stroke="#FFF" stroke-width=".5" d="M16.99 20.287l-.903-.912c2.363-2.614 7.317-2.925 10.156-.03l-.954.89c-1.113-1.037-2.485-1.636-4.104-1.64-1.62-.003-3.001.572-4.195 1.692"/>
        <path fill="#1363AA" stroke="#FFF" stroke-width=".5" d="M24.617 21.288l-.92.871c-1.666-1.336-3.35-1.365-5.068.01l-.904-.894c1.768-1.883 5.053-1.887 6.892.013"/>
        <path fill="#1363AA" stroke="#FFF" stroke-width=".3" d="M22.327 23.749a1.155 1.155 0 0 1-1.178 1.142c-.63-.01-1.14-.505-1.151-1.117-.012-.663.465-1.136 1.15-1.141.692-.005 1.178.456 1.179 1.116"/>
    </g>
</svg>
