<svg xmlns="http://www.w3.org/2000/svg" width="42" height="42" viewBox="0 0 42 42">
    <g fill="none" fill-rule="evenodd" transform="translate(1)">
        <circle cx="20" cy="11" r="4" fill="#2485DB"/>
        <g fill="#FFF">
            <path stroke="#1363AA" d="M40.36 21.18c0 11.144-9.036 20.179-20.18 20.179C9.034 41.359 0 32.324 0 21.18 0 10.034 9.034 1 20.18 1c11.144 0 20.18 9.034 20.18 20.18"/>
            <path d="M20.449 41.357l-.145.001h.145zm-8.709-1.842c1.824.88 3.809 1.466 6.122 1.712a20.062 20.062 0 0 1-6.122-1.712zM1.291 28.295c.796 2.2 2.072 4.517 4.096 6.61a20.175 20.175 0 0 1-4.096-6.61z"/>
        </g>
        <path stroke="#1363AA" d="M7 30.958h4.728V17H7zM14 30.958h4.728V12H14zM21 30.958h4.728V8H21z"/>
        <g fill="#FFF" stroke="#1363AA" transform="translate(15 15)">
            <path d="M11.387 10c.324.34.627.672.938 1.013l.666-.4c.064.06.126.117.186.175 1.535 1.536 3.067 3.074 4.61 4.602.184.183.248.347.195.608-.193.967-.709 1.632-1.68 1.906-.418.134-.717.076-1.042-.26-1.46-1.51-2.962-2.982-4.449-4.467-.06-.06-.128-.113-.2-.174l.34-.689c-.2-.232-.727-.69-.951-.95L11.387 10z"/>
            <circle cx="6" cy="6" r="6"/>
        </g>
    </g>
</svg>
